{
  "palette": {
    "common": {
      "black": "#000",
      "white": "#fff"
    },
    "background": {
      "paper": "#fff",
      "default": "#fafafa"
    },
    "primary": {
      "light": "rgba(100, 216, 203, 1)",
      "main": "rgba(38, 166, 154, 1)",
      "dark": "rgba(0, 118, 108, 1)",
      "contrastText": "#fff"
    },
    "secondary": {
      "light": "rgba(129, 156, 169, 1)",
      "main": "rgba(84, 110, 122, 1)",
      "dark": "rgba(41, 67, 78, 1)",
      "contrastText": "#fff"
    },
    "error": {
      "light": "#e57373",
      "main": "#f44336",
      "dark": "#d32f2f",
      "contrastText": "#fff"
    },
    "text": {
      "primary": "rgba(0, 0, 0, 0.87)",
      "secondary": "rgba(0, 0, 0, 0.54)",
      "disabled": "rgba(0, 0, 0, 0.38)",
      "hint": "rgba(0, 0, 0, 0.38)"
    }
  }
}
